{
  "color-primary-100": "#CAF2FC",
  "color-primary-200": "#96DFFA",
  "color-primary-300": "#60C3F2",
  "color-primary-400": "#39A4E5",
  "color-primary-500": "#0078D4",
  "color-primary-600": "#005DB6",
  "color-primary-700": "#004598",
  "color-primary-800": "#00307A",
  "color-primary-900": "#002265",
  "color-success-100": "#E6FAD3",
  "color-success-200": "#C9F5AA",
  "color-success-300": "#9CE17A",
  "color-success-400": "#70C353",
  "color-success-500": "#3B9B25",
  "color-success-600": "#26851B",
  "color-success-700": "#156F12",
  "color-success-800": "#0B590E",
  "color-success-900": "#074A0E",
  "color-info-100": "#D6DCFE",
  "color-info-200": "#ADB9FD",
  "color-info-300": "#8494FB",
  "color-info-400": "#6577F8",
  "color-info-500": "#3349F4",
  "color-info-600": "#2536D1",
  "color-info-700": "#1927AF",
  "color-info-800": "#101A8D",
  "color-info-900": "#091075",
  "color-warning-100": "#FFF3CD",
  "color-warning-200": "#FFE39B",
  "color-warning-300": "#FFCF6A",
  "color-warning-400": "#FFBC45",
  "color-warning-500": "#FF9C07",
  "color-warning-600": "#DB7D05",
  "color-warning-700": "#B76103",
  "color-warning-800": "#934802",
  "color-warning-900": "#7A3601",
  "color-danger-100": "#FFE5D2",
  "color-danger-200": "#FFC4A6",
  "color-danger-300": "#FF9C79",
  "color-danger-400": "#FF7658",
  "color-danger-500": "#FF3721",
  "color-danger-600": "#DB1B18",
  "color-danger-700": "#B7101B",
  "color-danger-800": "#930A1E",
  "color-danger-900": "#7A0620"
}